{
    "arrayOfNumbers": [
                       1,
                       2,
                       3,
                       4,
                       5
                       ],
    "array": [
              {
              "stringProperty": "qwerty1",
              "numberProperty": 1
              },
              {
              "stringProperty": "qwerty2",
              "numberProperty": 2
              },
              {
              "stringProperty": "qwerty3",
              "numberProperty": 3
              },
              {
              "stringProperty": "qwerty4",
              "numberProperty": 4
              }
              ],
    "bool": true
}